Original plotly Codes
…
data("rest_inspec")

I did some data cleaning, and choose only Italian restaurants for
further analysis.

data("rest_inspec")

nyc_inspections_italian = 
  rest_inspec %>% 
  drop_na() %>% 
  filter(cuisine_description == "Italian")

nyc_inspections_italian

## # A tibble: 8,437 × 18
##    action boro  build…¹  camis criti…² cuisi…³ dba   inspection_date     inspe…⁴
##    <chr>  <chr> <chr>    <int> <chr>   <chr>   <chr> <dttm>              <chr>  
##  1 Viola… MANH… 378     4.04e7 Critic… Italian SALU… 2015-05-20 00:00:00 Cycle …
##  2 Viola… MANH… 132     5.00e7 Critic… Italian INNS… 2016-07-22 00:00:00 Cycle …
##  3 Viola… MANH… 425     4.15e7 Critic… Italian SPIN… 2015-10-05 00:00:00 Cycle …
##  4 Viola… MANH… 425     4.15e7 Critic… Italian SPIN… 2016-04-18 00:00:00 Cycle …
##  5 Viola… MANH… 132     5.00e7 Not Cr… Italian INNS… 2017-10-10 00:00:00 Cycle …
##  6 Viola… MANH… 425     4.15e7 Critic… Italian SPIN… 2017-03-30 00:00:00 Cycle …
##  7 Viola… MANH… 4       5.00e7 Not Cr… Italian ULIVO 2016-05-18 00:00:00 Pre-pe…
##  8 Viola… MANH… 378     4.04e7 Not Cr… Italian SALU… 2016-06-17 00:00:00 Cycle …
##  9 Viola… MANH… 108     5.00e7 Not Cr… Italian BARI… 2016-03-07 00:00:00 Pre-pe…
## 10 Viola… MANH… 425     4.15e7 Critic… Italian SPIN… 2017-03-30 00:00:00 Cycle …
## # … with 8,427 more rows, 9 more variables: phone <chr>, record_date <dttm>,
## #   score <int>, street <chr>, violation_code <chr>,
## #   violation_description <chr>, zipcode <int>, grade <chr>, grade_date <dttm>,
## #   and abbreviated variable names ¹​building, ²​critical_flag,
## #   ³​cuisine_description, ⁴​inspection_type
…
